100,Noelle,Wallis,Noelle.Wallis@yopmail.com,Noelle.Wallis@gmail.com,firefighter,1
101,Antonietta,Franza,Antonietta.Franza@yopmail.com,Antonietta.Franza@gmail.com,developer,2

102,Ellette,Payson,Ellette.Payson@yopmail.com,Ellette.Payson@gmail.com,worker,3
103,Brana,Shaver,Brana.Shaver@yopmail.com,Brana.Shaver@gmail.com,firefighter,4
104,Angela,Sothena,Angela.Sothena@yopmail.com,Angela.Sothena@gmail.com,firefighter,5
105,Roz,Schalles,Roz.Schalles@yopmail.com,Roz.Schalles@gmail.com,developer,6
106,Miquela,Moseley,Miquela.Moseley@yopmail.com,Miquela.Moseley@gmail.com,doctor,7
107,Aigneis,Lareena,Aigneis.Lareena@yopmail.com,Aigneis.Lareena@gmail.com,police-officer,8
108,Sharai,Prouty,Sharai.Prouty@yopmail.com,Sharai.Prouty@gmail.com,worker,9
109,Gwenneth,Jammal,Gwenneth.Jammal@yopmail.com,Gwenneth.Jammal@gmail.com,police-officer,10
110,Mallory,Sheedy,Mallory.Sheedy@yopmail.com,Mallory.Sheedy@gmail.com,police-officer,11
111,Gavrielle,Lubin,Gavrielle.Lubin@yopmail.com,Gavrielle.Lubin@gmail.com,worker,12
112,Berget,Dahlia,Berget.Dahlia@yopmail.com,Berget.Dahlia@gmail.com,worker,13
113,Blinni,Breed,Blinni.Breed@yopmail.com,Blinni.Breed@gmail.com,developer,14
114,Candy,Greyson,Candy.Greyson@yopmail.com,Candy.Greyson@gmail.com,firefighter,15
115,Susan,Lail,Susan.Lail@yopmail.com,Susan.Lail@gmail.com,firefighter,16
116,Joy,Abram,Joy.Abram@yopmail.com,Joy.Abram@gmail.com,firefighter,17
117,Karena,Parette,Karena.Parette@yopmail.com,Karena.Parette@gmail.com,firefighter,18
118,Teriann,Orlene,Teriann.Orlene@yopmail.com,Teriann.Orlene@gmail.com,developer,19
119,Leanna,Maxi,Leanna.Maxi@yopmail.com,Leanna.Maxi@gmail.com,police-officer,20
